{
  "project_info": {
    "project_number": "1069946938848",
    "firebase_url": "https://living-city-59876.firebaseio.com",
    "project_id": "living-city-59876",
    "storage_bucket": "living-city-59876.appspot.com"
  },
  "client": [
    {
      "client_info": {
        "mobilesdk_app_id": "1:1069946938848:android:326b5dfda2b2da6fa3f785",
        "android_client_info": {
          "package_name": "com.flutter.livingcity"
        }
      },
      "oauth_client": [
        {
          "client_id": "1069946938848-7ufc6r6jtcurk3038o437do0tl2kuq2r.apps.googleusercontent.com",
          "client_type": 1,
          "android_info": {
            "package_name": "com.flutter.livingcity",
            "certificate_hash": "0622bfc895549329524a0795abd478ad53d10a7b"
          }
        },
        {
          "client_id": "1069946938848-n79hohq26d59flgq4o09828m5e1g13st.apps.googleusercontent.com",
          "client_type": 3
        }
      ],
      "api_key": [
        {
          "current_key": "AIzaSyCSCwraB_KmVHUljEkaSdX-Qet0_EbVlPE"
        }
      ],
      "services": {
        "appinvite_service": {
          "other_platform_oauth_client": [
            {
              "client_id": "1069946938848-n79hohq26d59flgq4o09828m5e1g13st.apps.googleusercontent.com",
              "client_type": 3
            }
          ]
        }
      }
    }
  ],
  "configuration_version": "1"
}